homework_7_Tan_Xinmiao
…
 Can the relationship be estimated linearly?

It can be estimated linearly. Other non-linearly models can be tested also. Use the better fitted models.

 Are these good features, given the problem we are trying to solve?

These are good features, because they impact the sales price logically.

After fitting the model, output the coefficients and the R-squared using the broom package. Answer these questions:

train_lm2 <- lm(formula = SalePrice ~ GrLivArea + OverallQual + Neighborhood, data = train)
tidy(train_lm2)

## # A tibble: 27 x 5
##                   term    estimate    std.error statistic      p.value
##                  <chr>       <dbl>        <dbl>     <dbl>        <dbl>
##  1         (Intercept) -34829.2399 11541.232315 -3.017809 2.591005e-03
##  2           GrLivArea     55.5645     2.498787 22.236587 2.375376e-94
##  3         OverallQual  20951.4249  1162.273747 18.026239 1.238994e-65
##  4 NeighborhoodBlueste -30752.8759 27697.270091 -1.110322 2.670468e-01
##  5  NeighborhoodBrDale -43358.8812 12978.523255 -3.340818 8.568095e-04
##  6 NeighborhoodBrkSide -13025.4529 10450.444653 -1.246402 2.128206e-01
##  7 NeighborhoodClearCr  24575.6351 11569.625542  2.124151 3.382834e-02
##  8 NeighborhoodCollgCr  11414.3095  9496.581581  1.201939 2.295858e-01
##  9 NeighborhoodCrawfor  14444.2502 10502.214763  1.375353 1.692371e-01
## 10 NeighborhoodEdwards -17842.9513  9985.733698 -1.786844 7.417398e-02
## # ... with 17 more rows
…
