COMPSCIX 415.2 Homework 3
…
filter(mpg, cyl == 8)

## Warning: package 'bindrcpp' was built under R version 3.3.2

## # A tibble: 70 x 11
##    manufacturer              model displ  year   cyl      trans   drv
##           <chr>              <chr> <dbl> <int> <int>      <chr> <chr>
##  1         audi         a6 quattro   4.2  2008     8   auto(s6)     4
##  2    chevrolet c1500 suburban 2wd   5.3  2008     8   auto(l4)     r
##  3    chevrolet c1500 suburban 2wd   5.3  2008     8   auto(l4)     r
##  4    chevrolet c1500 suburban 2wd   5.3  2008     8   auto(l4)     r
##  5    chevrolet c1500 suburban 2wd   5.7  1999     8   auto(l4)     r
##  6    chevrolet c1500 suburban 2wd   6.0  2008     8   auto(l4)     r
##  7    chevrolet           corvette   5.7  1999     8 manual(m6)     r
##  8    chevrolet           corvette   5.7  1999     8   auto(l4)     r
##  9    chevrolet           corvette   6.2  2008     8 manual(m6)     r
## 10    chevrolet           corvette   6.2  2008     8   auto(s6)     r
## # ... with 60 more rows, and 4 more variables: cty <int>, hwy <int>,
## #   fl <chr>, class <chr>

filter(diamonds, carat > 3)

## # A tibble: 32 x 10
##    carat     cut color clarity depth table price     x     y     z
##    <dbl>   <ord> <ord>   <ord> <dbl> <dbl> <int> <dbl> <dbl> <dbl>
##  1  3.01 Premium     I      I1  62.7    58  8040  9.10  8.97  5.67
##  2  3.11    Fair     J      I1  65.9    57  9823  9.15  9.02  5.98
##  3  3.01 Premium     F      I1  62.2    56  9925  9.24  9.13  5.73
##  4  3.05 Premium     E      I1  60.9    58 10453  9.26  9.25  5.66
##  5  3.02    Fair     I      I1  65.2    56 10577  9.11  9.02  5.91
##  6  3.01    Fair     H      I1  56.1    62 10761  9.54  9.38  5.31
##  7  3.65    Fair     H      I1  67.1    53 11668  9.53  9.48  6.38
##  8  3.24 Premium     H      I1  62.1    58 12300  9.44  9.40  5.85
##  9  3.22   Ideal     I      I1  62.6    55 12545  9.49  9.42  5.92
## 10  3.50   Ideal     H      I1  62.8    57 12587  9.65  9.59  6.03
## # ... with 22 more rows
…
flights_sml <- select(flights, 
                      year:day, 
                      ends_with("delay"), 
                      distance, 
                      air_time,
                      dest,
                      carrier,
                      dep_time,
                      arr_time
)
filter(flights_sml, arr_delay >=120)

## # A tibble: 10,200 x 11
##     year month   day dep_delay arr_delay distance air_time  dest carrier
##    <int> <int> <int>     <dbl>     <dbl>    <dbl>    <dbl> <chr>   <chr>
##  1  2013     1     1       101       137      544      118   CLT      MQ
##  2  2013     1     1       853       851      184       41   BWI      MQ
##  3  2013     1     1       144       123      200       37   BOS      UA
##  4  2013     1     1       134       145     1416      248   IAH      UA
##  5  2013     1     1       115       127      277       63   RIC      EV
##  6  2013     1     1       105       125      937      152   MCO      B6
##  7  2013     1     1        64       136     1092      234   MCI      EV
##  8  2013     1     1       119       123      228       53   IAD      EV
##  9  2013     1     1        62       123      533      119   DAY      EV
## 10  2013     1     1       103       138      764      154   BNA      MQ
## # ... with 10,190 more rows, and 2 more variables: dep_time <int>,
## #   arr_time <int>

1.2 Flew to Houston (IAH or HOU)

filter(flights_sml, dest == 'IAH' |  dest == 'HOU')

## # A tibble: 9,313 x 11
##     year month   day dep_delay arr_delay distance air_time  dest carrier
##    <int> <int> <int>     <dbl>     <dbl>    <dbl>    <dbl> <chr>   <chr>
##  1  2013     1     1         2        11     1400      227   IAH      UA
##  2  2013     1     1         4        20     1416      227   IAH      UA
##  3  2013     1     1        -4         1     1416      229   IAH      UA
##  4  2013     1     1        -4         3     1416      238   IAH      UA
##  5  2013     1     1         0        26     1400      249   IAH      UA
##  6  2013     1     1         0         9     1400      233   IAH      UA
##  7  2013     1     1         2        11     1416      237   IAH      UA
##  8  2013     1     1        -1         1     1400      229   IAH      UA
##  9  2013     1     1       134       145     1416      248   IAH      UA
## 10  2013     1     1         5        -2     1400      221   IAH      UA
## # ... with 9,303 more rows, and 2 more variables: dep_time <int>,
## #   arr_time <int>

1.3 Were operated by United, American, or Delta

filter(flights_sml, carrier == 'UA' |  carrier == 'AA' |  carrier == 'DL')

## # A tibble: 139,504 x 11
##     year month   day dep_delay arr_delay distance air_time  dest carrier
##    <int> <int> <int>     <dbl>     <dbl>    <dbl>    <dbl> <chr>   <chr>
##  1  2013     1     1         2        11     1400      227   IAH      UA
##  2  2013     1     1         4        20     1416      227   IAH      UA
##  3  2013     1     1         2        33     1089      160   MIA      AA
##  4  2013     1     1        -6       -25      762      116   ATL      DL
##  5  2013     1     1        -4        12      719      150   ORD      UA
##  6  2013     1     1        -2         8      733      138   ORD      AA
##  7  2013     1     1        -2         7     2475      345   LAX      UA
##  8  2013     1     1        -2       -14     2565      361   SFO      UA
##  9  2013     1     1        -1        31     1389      257   DFW      AA
## 10  2013     1     1        -1        -8     2227      337   LAS      UA
## # ... with 139,494 more rows, and 2 more variables: dep_time <int>,
## #   arr_time <int>

1.4 Departed in summer (July, August, and September)

filter(flights_sml, month == 7 |  month == 8 |  month == 9)

## # A tibble: 86,326 x 11
##     year month   day dep_delay arr_delay distance air_time  dest carrier
##    <int> <int> <int>     <dbl>     <dbl>    <dbl>    <dbl> <chr>   <chr>
##  1  2013     7     1       212       157     2586      315   SFO      B6
##  2  2013     7     1         3         0     1598      200   SJU      B6
##  3  2013     7     1       104       110      266       66   BTV      B6
##  4  2013     7     1       193       188     1076      143   FLL      B6
##  5  2013     7     1       174       120     2475      297   LAX      AA
##  6  2013     7     1       235       186     2454      304   PDX      B6
##  7  2013     7     1       287       243     2475      298   LAX      VX
##  8  2013     7     1       183       172     1005      140   TPA      B6
##  9  2013     7     1       194       177      944      126   MCO      B6
## 10  2013     7     1       135       122     2475      304   LAX      B6
## # ... with 86,316 more rows, and 2 more variables: dep_time <int>,
## #   arr_time <int>
…
filter(flights_sml, dep_delay == 0 & arr_delay >=120 )

## # A tibble: 3 x 11
##    year month   day dep_delay arr_delay distance air_time  dest carrier
##   <int> <int> <int>     <dbl>     <dbl>    <dbl>    <dbl> <chr>   <chr>
## 1  2013    10     7         0       130      812      117   MSN      EV
## 2  2013     5    23         0       128      479       82   CMH      MQ
## 3  2013     7     1         0       140     1096      183   MIA      DL
## # ... with 2 more variables: dep_time <int>, arr_time <int>

1.6 Were delayed by at least an hour, but made up over 30 minutes in flight

filter(flights_sml, dep_delay >= 60 & arr_delay <30 )

## # A tibble: 206 x 11
##     year month   day dep_delay arr_delay distance air_time  dest carrier
##    <int> <int> <int>     <dbl>     <dbl>    <dbl>    <dbl> <chr>   <chr>
##  1  2013     1     3        65        28     2586      314   SFO      AA
##  2  2013     1     3        65         1     2576      319   OAK      B6
##  3  2013     1     3        60        24      740      110   ORD      9E
##  4  2013     1     6        79        28     4983      611   HNL      HA
##  5  2013     1     7        73        23     1372      177   DFW      AA
##  6  2013     1    11        60        26     1389      201   DFW      AA
##  7  2013     1    12        66        22     1096      141   MIA      DL
##  8  2013     1    12        68        17     1182      165   MSY      9E
##  9  2013     1    19        61        21      963      137   MEM      EV
## 10  2013     1    21        61        28     2586      345   SFO      DL
## # ... with 196 more rows, and 2 more variables: dep_time <int>,
## #   arr_time <int>

1.7 Departed between midnight and 6am (inclusive)

filter(flights_sml, dep_time >= 0 & dep_time <=600 )

## # A tibble: 9,344 x 11
##     year month   day dep_delay arr_delay distance air_time  dest carrier
##    <int> <int> <int>     <dbl>     <dbl>    <dbl>    <dbl> <chr>   <chr>
##  1  2013     1     1         2        11     1400      227   IAH      UA
##  2  2013     1     1         4        20     1416      227   IAH      UA
##  3  2013     1     1         2        33     1089      160   MIA      AA
##  4  2013     1     1        -1       -18     1576      183   BQN      B6
##  5  2013     1     1        -6       -25      762      116   ATL      DL
##  6  2013     1     1        -4        12      719      150   ORD      UA
##  7  2013     1     1        -5        19     1065      158   FLL      B6
##  8  2013     1     1        -3       -14      229       53   IAD      EV
##  9  2013     1     1        -3        -8      944      140   MCO      B6
## 10  2013     1     1        -2         8      733      138   ORD      AA
## # ... with 9,334 more rows, and 2 more variables: dep_time <int>,
## #   arr_time <int>

3.How many flights have a missing dep_time? What other variables are missing? What might these rows represent?

summary(flights_sml$dep_time)

##    Min. 1st Qu.  Median    Mean 3rd Qu.    Max.    NA's 
##       1     907    1401    1349    1744    2400    8255

filter(flights_sml, is.na(dep_time))

## # A tibble: 8,255 x 11
##     year month   day dep_delay arr_delay distance air_time  dest carrier
##    <int> <int> <int>     <dbl>     <dbl>    <dbl>    <dbl> <chr>   <chr>
##  1  2013     1     1        NA        NA      416       NA   RDU      EV
##  2  2013     1     1        NA        NA     1389       NA   DFW      AA
##  3  2013     1     1        NA        NA     1096       NA   MIA      AA
##  4  2013     1     1        NA        NA     1069       NA   FLL      B6
##  5  2013     1     2        NA        NA      569       NA   CVG      EV
##  6  2013     1     2        NA        NA      319       NA   PIT      EV
##  7  2013     1     2        NA        NA      209       NA   MHT      EV
##  8  2013     1     2        NA        NA      746       NA   ATL      EV
##  9  2013     1     2        NA        NA      645       NA   IND      EV
## 10  2013     1     2        NA        NA     2475       NA   LAX      AA
## # ... with 8,245 more rows, and 2 more variables: dep_time <int>,
## #   arr_time <int>

8255 flights have a missing dep-time. dep_delay, arr_delay and arr_time are all missing. This flights are cancelled.

4. Why is NA ^ 0 not missing? Why is NA | TRUE not missing? Why is FALSE & NA not missing? Can you figure out the general rule? (NA * 0 is a tricky counterexample!)

NA ^ 0 is 1. (Any number) ^ 0 is equal to 1. NA | TRUE is NA or TRUE. This will return as TRUE. FALSE & NA is FALSE and NA. This will return to FALSE. The general rule is that whenever there is a logical expressions, if one can be tested, then the result is not NA. And any operation that the results is determined, regardless of the number, the inputting NA does not affect the result.

Section 5.4.1: #1 and #3 only

1. Brainstorm as many ways as possible to select dep_time, dep_delay, arr_time, and arr_delay from flights.

flights_541 <- select(flights, dep_time, dep_delay, arr_time, arr_delay)
flights_541

## # A tibble: 336,776 x 4
##    dep_time dep_delay arr_time arr_delay
##       <int>     <dbl>    <int>     <dbl>
##  1      517         2      830        11
##  2      533         4      850        20
##  3      542         2      923        33
##  4      544        -1     1004       -18
##  5      554        -6      812       -25
##  6      554        -4      740        12
##  7      555        -5      913        19
##  8      557        -3      709       -14
##  9      557        -3      838        -8
## 10      558        -2      753         8
## # ... with 336,766 more rows

flights_541 <- select(flights, starts_with('dep'), starts_with('arr'))
flights_541

## # A tibble: 336,776 x 4
##    dep_time dep_delay arr_time arr_delay
##       <int>     <dbl>    <int>     <dbl>
##  1      517         2      830        11
##  2      533         4      850        20
##  3      542         2      923        33
##  4      544        -1     1004       -18
##  5      554        -6      812       -25
##  6      554        -4      740        12
##  7      555        -5      913        19
##  8      557        -3      709       -14
##  9      557        -3      838        -8
## 10      558        -2      753         8
## # ... with 336,766 more rows

3. What does the one_of() function do? Why might it be helpful in conjunction with this vector?

vars <- c("year", "month", "day", "dep_delay", "arr_delay")
select(flights, one_of(vars))

## # A tibble: 336,776 x 5
##     year month   day dep_delay arr_delay
##    <int> <int> <int>     <dbl>     <dbl>
##  1  2013     1     1         2        11
##  2  2013     1     1         4        20
##  3  2013     1     1         2        33
##  4  2013     1     1        -1       -18
##  5  2013     1     1        -6       -25
##  6  2013     1     1        -4        12
##  7  2013     1     1        -5        19
##  8  2013     1     1        -3       -14
##  9  2013     1     1        -3        -8
## 10  2013     1     1        -2         8
## # ... with 336,766 more rows
…
