COMPSCIX 415.2 Homework 5/Midterm
…
The bigger the listings the bigger the number of sales.

5. What proportion of sales is missing for each city?

txhousing %>% 
    group_by(city) %>%
    mutate(missing_sales=case_when(is.na(sales) ~ 1,
                                   !is.na(sales) ~0)) %>%
    summarize(missing_sales_perc=sum(missing_sales)/n())

## # A tibble: 46 x 2
##                     city missing_sales_perc
##                    <chr>              <dbl>
##  1               Abilene         0.00000000
##  2              Amarillo         0.00000000
##  3             Arlington         0.00000000
##  4                Austin         0.00000000
##  5              Bay Area         0.00000000
##  6              Beaumont         0.00000000
##  7       Brazoria County         0.07486631
##  8           Brownsville         0.01069519
##  9 Bryan-College Station         0.00000000
## 10         Collin County         0.00000000
## # ... with 36 more rows
…
